{
  "version": 2,
  "projects": {
    "components": {
      "root": "libs/components",
      "sourceRoot": "libs/components/src",
      "projectType": "library",
      "targets": {
        "lint": {
          "executor": "@nrwl/linter:eslint",
          "outputs": ["{options.outputFile}"],
          "options": {
            "lintFilePatterns": ["libs/components/**/*.{ts,tsx,js,jsx}"]
          }
        },
        "test": {
          "executor": "@nrwl/jest:jest",
          "outputs": ["coverage/libs/components"],
          "options": {
            "jestConfig": "libs/components/jest.config.js",
            "passWithNoTests": true
          }
        }
      }
    },
    "data-access": "libs/data-access",
    "mock-data": "libs/mock-data",
    "pages": "libs/pages",
    "react-fundamentals": {
      "root": "apps/react-fundamentals",
      "sourceRoot": "apps/react-fundamentals/src",
      "projectType": "application",
      "targets": {
        "build": {
          "executor": "@nrwl/web:build",
          "outputs": ["{options.outputPath}"],
          "options": {
            "outputPath": "dist/apps/react-fundamentals",
            "index": "apps/react-fundamentals/src/index.html",
            "baseHref": "/",
            "main": "apps/react-fundamentals/src/main.tsx",
            "polyfills": "apps/react-fundamentals/src/polyfills.ts",
            "tsConfig": "apps/react-fundamentals/tsconfig.app.json",
            "assets": [
              "apps/react-fundamentals/src/favicon.ico",
              "apps/react-fundamentals/src/assets"
            ],
            "styles": ["apps/react-fundamentals/src/styles.css"],
            "scripts": [],
            "webpackConfig": "@nrwl/react/plugins/webpack"
          },
          "configurations": {
            "production": {
              "fileReplacements": [
                {
                  "replace": "apps/react-fundamentals/src/environments/environment.ts",
                  "with": "apps/react-fundamentals/src/environments/environment.prod.ts"
                }
              ],
              "optimization": true,
              "outputHashing": "all",
              "sourceMap": false,
              "extractCss": true,
              "namedChunks": false,
              "extractLicenses": true,
              "vendorChunk": false,
              "budgets": [
                {
                  "type": "initial",
                  "maximumWarning": "500kb",
                  "maximumError": "1mb"
                }
              ]
            }
          }
        },
        "serve": {
          "executor": "@nrwl/web:dev-server",
          "options": {
            "buildTarget": "react-fundamentals:build",
            "hmr": true
          },
          "configurations": {
            "production": {
              "buildTarget": "react-fundamentals:build:production",
              "hmr": false
            }
          }
        },
        "lint": {
          "executor": "@nrwl/linter:eslint",
          "outputs": ["{options.outputFile}"],
          "options": {
            "lintFilePatterns": ["apps/react-fundamentals/**/*.{ts,tsx,js,jsx}"]
          }
        },
        "test": {
          "executor": "@nrwl/jest:jest",
          "outputs": ["coverage/apps/react-fundamentals"],
          "options": {
            "jestConfig": "apps/react-fundamentals/jest.config.js",
            "passWithNoTests": true
          }
        }
      }
    },
    "react-fundamentals-e2e": {
      "root": "apps/react-fundamentals-e2e",
      "sourceRoot": "apps/react-fundamentals-e2e/src",
      "projectType": "application",
      "targets": {
        "e2e": {
          "executor": "@nrwl/cypress:cypress",
          "options": {
            "cypressConfig": "apps/react-fundamentals-e2e/cypress.json",
            "devServerTarget": "react-fundamentals:serve",
            "tsConfig": "apps/react-fundamentals-e2e/tsconfig.json"
          },
          "configurations": {
            "production": {
              "devServerTarget": "react-fundamentals:serve:production"
            }
          }
        },
        "lint": {
          "executor": "@nrwl/linter:eslint",
          "outputs": ["{options.outputFile}"],
          "options": {
            "lintFilePatterns": ["apps/react-fundamentals-e2e/**/*.{js,ts}"]
          }
        }
      }
    },
    "types": {
      "root": "libs/types",
      "sourceRoot": "libs/types/src",
      "projectType": "library",
      "targets": {
        "lint": {
          "executor": "@nrwl/linter:eslint",
          "outputs": ["{options.outputFile}"],
          "options": {
            "lintFilePatterns": ["libs/types/**/*.ts"]
          }
        }
      },
      "tags": []
    },
    "utilities": {
      "root": "libs/utilities",
      "sourceRoot": "libs/utilities/src",
      "projectType": "library",
      "targets": {
        "lint": {
          "executor": "@nrwl/linter:eslint",
          "outputs": ["{options.outputFile}"],
          "options": {
            "lintFilePatterns": ["libs/utilities/**/*.ts"]
          }
        },
        "test": {
          "executor": "@nrwl/jest:jest",
          "outputs": ["coverage/libs/utilities"],
          "options": {
            "jestConfig": "libs/utilities/jest.config.js",
            "passWithNoTests": true
          }
        }
      }
    }
  }
}
