{
  "root": "libs/data-access",
  "sourceRoot": "libs/data-access/src",
  "targets": {
    "lint": {
      "executor": "@nrwl/linter:eslint",
      "outputs": ["{options.outputFile}"],
      "options": {
        "lintFilePatterns": ["libs/data-access/**/*.ts"]
      }
    },
    "test": {
      "executor": "@nrwl/jest:jest",
      "outputs": ["coverage/libs/data-access"],
      "options": {
        "jestConfig": "libs/data-access/jest.config.js",
        "passWithNoTests": true
      }
    }
  },
  "tags": []
}
